digraph graphname {
    rankdir="LR";
0 -> "class";
0 -> "seat";
0 -> "wagon";
1 -> "departure location";
1 -> "departure station";
1 -> "departure platform";
1 -> "departure track";
1 -> "departure date";
1 -> "departure time";
1 -> "arrival platform";
1 -> "class";
1 -> "route";
1 -> "seat";
1 -> "type";
1 -> "wagon";
1 -> "zone";
2 -> "departure date";
2 -> "departure time";
2 -> "class";
2 -> "seat";
2 -> "type";
2 -> "wagon";
3 -> "departure location";
3 -> "departure station";
3 -> "departure platform";
3 -> "departure track";
3 -> "departure date";
3 -> "departure time";
3 -> "arrival station";
3 -> "arrival platform";
3 -> "class";
3 -> "duration";
3 -> "route";
3 -> "seat";
3 -> "train";
3 -> "type";
3 -> "wagon";
3 -> "zone";
4 -> "departure location";
4 -> "departure station";
4 -> "departure platform";
4 -> "departure track";
4 -> "departure date";
4 -> "departure time";
4 -> "arrival platform";
4 -> "class";
4 -> "seat";
4 -> "type";
4 -> "wagon";
4 -> "zone";
5 -> "departure location";
5 -> "departure station";
5 -> "departure platform";
5 -> "departure track";
5 -> "departure date";
5 -> "departure time";
5 -> "arrival station";
5 -> "arrival platform";
5 -> "arrival track";
5 -> "class";
5 -> "duration";
5 -> "price";
5 -> "route";
5 -> "row";
5 -> "seat";
5 -> "train";
5 -> "type";
5 -> "wagon";
5 -> "zone";
6 -> "departure location";
6 -> "departure station";
6 -> "departure platform";
6 -> "departure track";
6 -> "departure date";
6 -> "departure time";
6 -> "arrival station";
6 -> "arrival platform";
6 -> "class";
6 -> "route";
6 -> "seat";
6 -> "train";
6 -> "type";
6 -> "wagon";
6 -> "zone";
7 -> "departure location";
7 -> "departure station";
7 -> "departure platform";
7 -> "departure track";
7 -> "departure date";
7 -> "departure time";
7 -> "class";
7 -> "seat";
7 -> "type";
7 -> "wagon";
7 -> "zone";
8 -> "departure location";
8 -> "departure station";
8 -> "departure platform";
8 -> "departure track";
8 -> "departure date";
8 -> "departure time";
8 -> "arrival station";
8 -> "arrival platform";
8 -> "class";
8 -> "duration";
8 -> "route";
8 -> "row";
8 -> "seat";
8 -> "train";
8 -> "type";
8 -> "wagon";
8 -> "zone";
9 -> "departure location";
9 -> "departure station";
9 -> "departure platform";
9 -> "departure date";
9 -> "departure time";
9 -> "class";
9 -> "seat";
9 -> "type";
9 -> "wagon";
10 -> "departure station";
10 -> "departure platform";
10 -> "departure date";
10 -> "departure time";
10 -> "class";
10 -> "seat";
10 -> "type";
10 -> "wagon";
11 -> "departure location";
11 -> "departure station";
11 -> "departure platform";
11 -> "departure track";
11 -> "departure date";
11 -> "departure time";
11 -> "arrival location";
11 -> "arrival station";
11 -> "arrival platform";
11 -> "arrival track";
11 -> "class";
11 -> "duration";
11 -> "price";
11 -> "route";
11 -> "row";
11 -> "seat";
11 -> "train";
11 -> "type";
11 -> "wagon";
11 -> "zone";
12 -> "departure location";
12 -> "departure station";
12 -> "departure platform";
12 -> "departure track";
12 -> "departure date";
12 -> "departure time";
12 -> "arrival station";
12 -> "arrival platform";
12 -> "class";
12 -> "route";
12 -> "seat";
12 -> "type";
12 -> "wagon";
12 -> "zone";
13 -> "departure location";
13 -> "departure station";
13 -> "departure platform";
13 -> "departure track";
13 -> "departure date";
13 -> "departure time";
13 -> "arrival station";
13 -> "arrival platform";
13 -> "class";
13 -> "duration";
13 -> "price";
13 -> "route";
13 -> "row";
13 -> "seat";
13 -> "train";
13 -> "type";
13 -> "wagon";
13 -> "zone";
14 -> "seat";
14 -> "wagon";
15 -> "seat";
16 -> "class";
16 -> "seat";
16 -> "type";
16 -> "wagon";
17 -> "departure location";
17 -> "departure station";
17 -> "departure platform";
17 -> "departure track";
17 -> "departure date";
17 -> "departure time";
17 -> "class";
17 -> "seat";
17 -> "type";
17 -> "wagon";
18 -> "departure platform";
18 -> "departure date";
18 -> "departure time";
18 -> "class";
18 -> "seat";
18 -> "type";
18 -> "wagon";
19 -> "departure time";
19 -> "class";
19 -> "seat";
19 -> "type";
19 -> "wagon";
}

